Chapter 15 Sampling objects in a dataset | GVSU CIS 635 - Knowledge Discovery and Data Mining (Winter 2023)
…
  # Sample from characters of the current species
  species_sample <- species_sample %>%
    slice_sample(
      n=sample_size,
      replace=FALSE
    )
  # Add sample of this species to larger sample
  stratified_sampled_data <- rbind(
    stratified_sampled_data,
    species_sample
  )
}
stratified_sampled_data

## # A tibble: 44 × 14
##    name        height  mass hair_…¹ skin_…² eye_c…³ birth…⁴ sex   gender homew…⁵
##    <chr>        <int> <dbl> <chr>   <chr>   <chr>     <dbl> <chr> <chr>  <chr>  
##  1 Ratts Tyer…     79    15 none    grey, … unknown      NA male  mascu… Aleen …
##  2 Dexter Jet…    198   102 none    brown   yellow       NA male  mascu… Ojom   
##  3 Ki-Adi-Mun…    198    82 white   pale    yellow       92 male  mascu… Cerea  
##  4 Mas Amedda     196    NA none    blue    blue         NA male  mascu… Champa…
##  5 Zam Wesell     168    55 blonde  fair, … yellow       NA fema… femin… Zolan  
##  6 R2-D2           96    32 <NA>    white,… red          33 none  mascu… Naboo  
##  7 R5-D4           97    32 <NA>    white,… red          NA none  mascu… Tatooi…
##  8 Sebulba        112    40 none    grey, … orange       NA male  mascu… Malast…
##  9 Wicket Sys…     88    20 brown   brown   brown         8 male  mascu… Endor  
## 10 Poggle the…    183    80 none    green   yellow       NA male  mascu… Geonos…
## # … with 34 more rows, 4 more variables: species <chr>, films <list>,
## #   vehicles <list>, starships <list>, and abbreviated variable names
## #   ¹​hair_color, ²​skin_color, ³​eye_color, ⁴​birth_year, ⁵​homeworld
…
